<?xml version="1.0" encoding="UTF-8" standalone="no"?>
<!-- Created with Inkscape (http://www.inkscape.org/) -->

<svg
   xmlns:dc="http://purl.org/dc/elements/1.1/"
   xmlns:cc="http://creativecommons.org/ns#"
   xmlns:rdf="http://www.w3.org/1999/02/22-rdf-syntax-ns#"
   xmlns:svg="http://www.w3.org/2000/svg"
   xmlns="http://www.w3.org/2000/svg"
   xmlns:sodipodi="http://sodipodi.sourceforge.net/DTD/sodipodi-0.dtd"
   xmlns:inkscape="http://www.inkscape.org/namespaces/inkscape"
   id="svg2"
   version="1.1"
   inkscape:version="0.48.4 r9939"
   width="183.66026"
   height="126.90689"
   xml:space="preserve"
   sodipodi:docname="julien_logos.svg"><sodipodi:namedview
     pagecolor="#ffffff"
     bordercolor="#666666"
     borderopacity="1"
     objecttolerance="10"
     gridtolerance="10"
     guidetolerance="10"
     inkscape:pageopacity="0"
     inkscape:pageshadow="2"
     inkscape:window-width="1680"
     inkscape:window-height="977"
     id="namedview4"
     showgrid="false"
     inkscape:zoom="1.2686467"
     inkscape:cx="-207.99694"
     inkscape:cy="-4.7294682"
     inkscape:window-x="0"
     inkscape:window-y="25"
     inkscape:window-maximized="1"
     inkscape:current-layer="g10"
     fit-margin-top="0"
     fit-margin-left="0"
     fit-margin-right="0"
     fit-margin-bottom="0" /><metadata
     id="metadata8"><rdf:RDF><cc:Work
         rdf:about=""><dc:format>image/svg+xml</dc:format><dc:type
           rdf:resource="http://purl.org/dc/dcmitype/StillImage" /><dc:title></dc:title></cc:Work></rdf:RDF></metadata><defs
     id="defs6"><clipPath
       clipPathUnits="userSpaceOnUse"
       id="clipPath18"><path
         d="m 0,595.28 841.89,0 L 841.89,0 0,0 0,595.28 z"
         id="path20"
         inkscape:connector-curvature="0" /></clipPath><clipPath
       clipPathUnits="userSpaceOnUse"
       id="clipPath302"><path
         d="m 755.525,387.313 13.993,0 0,-5.012 -13.993,0 0,5.012 z"
         id="path304"
         inkscape:connector-curvature="0" /></clipPath><clipPath
       clipPathUnits="userSpaceOnUse"
       id="clipPath318"><path
         d="m 766.183,390.736 13.416,0 0,-4.495 -13.416,0 0,4.495 z"
         id="path320"
         inkscape:connector-curvature="0" /></clipPath><clipPath
       clipPathUnits="userSpaceOnUse"
       id="clipPath342"><path
         d="m 722.698,355.617 21.428,0 0,-9.751 -21.428,0 0,9.751 z"
         id="path344"
         inkscape:connector-curvature="0" /></clipPath><clipPath
       clipPathUnits="userSpaceOnUse"
       id="clipPath362"><path
         d="m 755.976,368.844 17.718,0 0,-7.329 -17.718,0 0,7.329 z"
         id="path364"
         inkscape:connector-curvature="0" /></clipPath><clipPath
       clipPathUnits="userSpaceOnUse"
       id="clipPath378"><path
         d="m 769.498,374.108 16.069,0 0,-6.338 -16.069,0 0,6.338 z"
         id="path380"
         inkscape:connector-curvature="0" /></clipPath><clipPath
       clipPathUnits="userSpaceOnUse"
       id="clipPath402"><path
         d="m 758.053,338.853 23.231,0 0,-13.066 -23.231,0 0,13.066 z"
         id="path404"
         inkscape:connector-curvature="0" /></clipPath><clipPath
       clipPathUnits="userSpaceOnUse"
       id="clipPath418"><path
         d="m 756.625,355.963 20.459,0 0,-9.656 -20.459,0 0,9.656 z"
         id="path420"
         inkscape:connector-curvature="0" /></clipPath><clipPath
       clipPathUnits="userSpaceOnUse"
       id="clipPath434"><path
         d="m 771.386,363.039 18.839,0 0,-8.284 -18.839,0 0,8.284 z"
         id="path436"
         inkscape:connector-curvature="0" /></clipPath><clipPath
       clipPathUnits="userSpaceOnUse"
       id="clipPath450"><path
         d="m 774.939,348.41 21.276,0 0,-10.85 -21.276,0 0,10.85 z"
         id="path452"
         inkscape:connector-curvature="0" /></clipPath><clipPath
       clipPathUnits="userSpaceOnUse"
       id="clipPath466"><path
         d="m 767.899,382.998 14.161,0 0,-5.047 -14.161,0 0,5.047 z"
         id="path468"
         inkscape:connector-curvature="0" /></clipPath><clipPath
       clipPathUnits="userSpaceOnUse"
       id="clipPath482"><path
         d="m 756.018,378.656 15.298,0 0,-5.667 -15.298,0 0,5.667 z"
         id="path484"
         inkscape:connector-curvature="0" /></clipPath><clipPath
       clipPathUnits="userSpaceOnUse"
       id="clipPath502"><path
         d="m 727.036,368.684 18.154,0 0,-7.586 -18.154,0 0,7.586 z"
         id="path504"
         inkscape:connector-curvature="0" /></clipPath><clipPath
       clipPathUnits="userSpaceOnUse"
       id="clipPath518"><path
         d="m 708.578,362.401 20.472,0 0,-8.581 -20.472,0 0,8.581 z"
         id="path520"
         inkscape:connector-curvature="0" /></clipPath><clipPath
       clipPathUnits="userSpaceOnUse"
       id="clipPath678"><path
         d="m 675.853,277.574 114.372,0 0,-45.34 -114.372,0 0,45.34 z"
         id="path680"
         inkscape:connector-curvature="0" /></clipPath></defs><g
     id="g10"
     inkscape:groupmode="layer"
     inkscape:label="logo map v3_DB0814"
     transform="matrix(1.25,0,0,-1.25,-829.22997,503.68637)"><g
       id="g5561"><rect
         ry="11.268398"
         transform="scale(1,-1)"
         y="-402.9491"
         x="663.38397"
         height="101.52551"
         width="146.92821"
         id="rect5559"
         style="fill:#dd4814;fill-opacity:1;stroke:none" /><g
         id="g5455"><g
           id="g278"
           transform="translate(696.6621,359.5361)"><path
             d="m 0,0 c -0.402,2.143 -5.656,3.304 -11.298,2.246 -5.639,-1.059 -9.888,-3.656 -9.485,-5.799 0.403,-2.143 5.302,-3.021 10.942,-1.962 C -4.199,-4.456 0.402,-2.143 0,0"
             style="fill:#ffffff;fill-opacity:1;fill-rule:nonzero;stroke:none"
             id="path280"
             inkscape:connector-curvature="0" /></g><g
           id="g282"
           transform="translate(715.3936,365.8779)"><path
             d="m 0,0 c -0.302,1.997 -5.129,3.432 -10.428,2.641 -5.298,-0.792 -8.977,-2.99 -8.676,-4.986 0.257,-1.709 5.636,-2.86 9.77,-2.242 C -4.035,-3.796 0.302,-1.996 0,0"
             style="fill:#ffffff;fill-opacity:1;fill-rule:nonzero;stroke:none"
             id="path284"
             inkscape:connector-curvature="0" /></g><g
           id="g286"
           transform="translate(732.0527,371.564)"><path
             d="m 0,0 c -0.202,1.85 -4.602,3.069 -9.557,2.545 -4.954,-0.524 -8.314,-2.233 -8.112,-4.082 0.201,-1.85 4.342,-2.91 9.298,-2.385 C -3.417,-3.399 0.2,-1.849 0,0"
             style="fill:#ffffff;fill-opacity:1;fill-rule:nonzero;stroke:none"
             id="path288"
             inkscape:connector-curvature="0" /></g><g
           id="g290"
           transform="translate(745.833,376.2402)"><path
             d="m 0,0 c -0.101,1.703 -3.981,3.113 -8.593,2.856 -4.612,-0.256 -7.461,-1.618 -7.359,-3.32 0.1,-1.703 3.323,-2.979 7.936,-2.723 C -3.404,-2.93 0.102,-1.703 0,0"
             style="fill:#ffffff;fill-opacity:1;fill-rule:nonzero;stroke:none"
             id="path292"
             inkscape:connector-curvature="0" /></g><g
           id="g294"
           transform="translate(758.4678,380.626)"><path
             d="m 0,0 c -0.001,1.556 -3.286,2.878 -7.558,2.889 -4.269,0.011 -7.359,-1.204 -7.359,-2.761 10e-4,-1.555 3.599,-2.837 7.869,-2.848 C -2.777,-2.731 0,-1.556 0,0"
             style="fill:#ffffff;fill-opacity:1;fill-rule:nonzero;stroke:none"
             id="path296"
             inkscape:connector-curvature="0" /></g><g
           id="g298"><g
             id="g300" /><g
             id="g306"><g
               clip-path="url(#clipPath302)"
               id="g308"
               style="opacity:0.30000299"><g
                 transform="translate(769.5146,384.3345)"
                 id="g310"><path
                   d="m 0,0 c 0.101,1.41 -2.582,2.657 -6.509,2.936 -3.927,0.278 -7.377,-0.839 -7.477,-2.248 -0.101,-1.409 2.469,-2.39 6.397,-2.668 C -3.662,-2.259 -0.1,-1.408 0,0"
                   style="fill:#ffffff;fill-opacity:1;fill-rule:nonzero;stroke:none"
                   id="path312"
                   inkscape:connector-curvature="0" /></g></g></g></g><g
           id="g314"><g
             id="g316" /><g
             id="g322"><g
               clip-path="url(#clipPath318)"
               id="g324"
               style="opacity:0.30000299"><g
                 transform="translate(779.5967,388.0337)"
                 id="g326"><path
                   d="m 0,0 c 0.09,1.261 -2.487,2.391 -6.255,2.659 -3.766,0.266 -7.068,-0.719 -7.157,-1.98 -0.09,-1.261 2.378,-2.151 6.145,-2.418 C -3.501,-2.006 -0.09,-1.261 0,0"
                   style="fill:#ffffff;fill-opacity:1;fill-rule:nonzero;stroke:none"
                   id="path328"
                   inkscape:connector-curvature="0" /></g></g></g></g><g
           id="g330"
           transform="translate(762.8984,320.856)"><path
             d="m 0,0 c -0.543,4.483 -6.813,7.411 -14.007,6.54 -7.19,-0.869 -12.581,-5.207 -12.04,-9.687 0.542,-4.482 6.812,-7.41 14.003,-6.54 C -4.851,-8.818 0.542,-4.481 0,0"
             style="fill:#ffffff;fill-opacity:1;fill-rule:nonzero;stroke:none"
             id="path332"
             inkscape:connector-curvature="0" /></g><g
           id="g334"
           transform="translate(725.2715,343.0205)"><path
             d="m 0,0 c -0.386,2.988 -5.942,4.733 -12.412,3.896 -6.47,-0.835 -11.402,-3.935 -11.016,-6.923 0.386,-2.989 5.944,-4.733 12.412,-3.897 C -4.546,-6.088 0.387,-2.988 0,0"
             style="fill:#ffffff;fill-opacity:1;fill-rule:nonzero;stroke:none"
             id="path336"
             inkscape:connector-curvature="0" /></g><g
           id="g338"><g
             id="g340" /><g
             id="g346"><g
               clip-path="url(#clipPath342)"
               id="g348"
               style="opacity:0.30000299"><g
                 transform="translate(744.1123,351.6743)"
                 id="g350"><path
                   d="m 0,0 c -0.278,2.666 -5.276,4.424 -11.237,3.826 -5.96,-0.599 -10.444,-3.104 -10.164,-5.769 0.277,-2.666 5.858,-4.342 11.819,-3.744 C -3.622,-5.088 0.278,-2.666 0,0"
                   style="fill:#ffffff;fill-opacity:1;fill-rule:nonzero;stroke:none"
                   id="path352"
                   inkscape:connector-curvature="0" /></g></g></g></g><g
           id="g354"
           transform="translate(760.0762,358.8174)"><path
             d="m 0,0 c -0.168,2.304 -4.521,4.046 -9.866,3.691 -5.344,-0.356 -9.54,-2.512 -9.372,-4.816 0.166,-2.304 4.634,-3.883 9.979,-3.528 C -3.914,-4.298 0.168,-2.303 0,0"
             style="fill:#ffffff;fill-opacity:1;fill-rule:nonzero;stroke:none"
             id="path356"
             inkscape:connector-curvature="0" /></g><g
           id="g358"><g
             id="g360" /><g
             id="g366"><g
               clip-path="url(#clipPath362)"
               id="g368"
               style="opacity:0.30000299"><g
                 transform="translate(773.6934,365.1562)"
                 id="g370"><path
                   d="m 0,0 c -0.062,2.021 -3.942,3.806 -8.885,3.682 -4.941,-0.123 -8.896,-1.862 -8.832,-3.882 0.063,-2.02 4.121,-3.558 9.064,-3.435 C -3.713,-3.511 0.064,-2.02 0,0"
                   style="fill:#ffffff;fill-opacity:1;fill-rule:nonzero;stroke:none"
                   id="path372"
                   inkscape:connector-curvature="0" /></g></g></g></g><g
           id="g374"><g
             id="g376" /><g
             id="g382"><g
               clip-path="url(#clipPath378)"
               id="g384"
               style="opacity:0.30000299"><g
                 transform="translate(785.5674,370.3911)"
                 id="g386"><path
                   d="m 0,0 c 0.046,1.747 -3.328,3.595 -7.833,3.71 -4.503,0.116 -8.19,-1.205 -8.236,-2.951 -0.045,-1.747 3.57,-3.256 8.075,-3.371 C -3.491,-2.728 -0.044,-1.746 0,0"
                   style="fill:#ffffff;fill-opacity:1;fill-rule:nonzero;stroke:none"
                   id="path388"
                   inkscape:connector-curvature="0" /></g></g></g></g><g
           id="g390"
           transform="translate(742.6328,332.7407)"><path
             d="m 0,0 c -0.42,3.537 -6.32,5.743 -13.18,4.929 -6.859,-0.815 -12.08,-4.341 -11.66,-7.875 0.419,-3.537 6.319,-5.744 13.18,-4.93 C -4.801,-7.062 0.42,-3.537 0,0"
             style="fill:#ffffff;fill-opacity:1;fill-rule:nonzero;stroke:none"
             id="path392"
             inkscape:connector-curvature="0" /></g><g
           id="g394"
           transform="translate(761.2988,342.5747)"><path
             d="m 0,0 c -0.187,3.019 -5.225,5.324 -11.369,4.974 -6.142,-0.349 -10.968,-3.08 -10.78,-6.099 0.187,-3.02 5.318,-5.184 11.461,-4.834 C -4.545,-5.61 0.189,-3.02 0,0"
             style="fill:#ffffff;fill-opacity:1;fill-rule:nonzero;stroke:none"
             id="path396"
             inkscape:connector-curvature="0" /></g><g
           id="g398"><g
             id="g400" /><g
             id="g406"><g
               clip-path="url(#clipPath402)"
               id="g408"
               style="opacity:0.30000299"><g
                 transform="translate(781.2832,332.2085)"
                 id="g410"><path
                   d="m 0,0 c 0.076,3.607 -4.975,6.672 -11.42,6.644 -6.445,-0.027 -11.733,-2.975 -11.809,-6.582 -0.078,-3.609 5.085,-6.51 11.532,-6.483 C -5.253,-6.393 -0.076,-3.609 0,0"
                   style="fill:#ffffff;fill-opacity:1;fill-rule:nonzero;stroke:none"
                   id="path412"
                   inkscape:connector-curvature="0" /></g></g></g></g><g
           id="g414"><g
             id="g416" /><g
             id="g422"><g
               clip-path="url(#clipPath418)"
               id="g424"
               style="opacity:0.30000299"><g
                 transform="translate(777.082,351.1665)"
                 id="g426"><path
                   d="m 0,0 c -0.099,2.662 -4.614,4.966 -10.313,4.787 -5.699,-0.18 -10.241,-2.481 -10.142,-5.142 0.099,-2.662 4.801,-4.674 10.499,-4.494 C -4.258,-4.67 0.099,-2.661 0,0"
                   style="fill:#ffffff;fill-opacity:1;fill-rule:nonzero;stroke:none"
                   id="path428"
                   inkscape:connector-curvature="0" /></g></g></g></g><g
           id="g430"><g
             id="g432" /><g
             id="g438"><g
               clip-path="url(#clipPath434)"
               id="g440"
               style="opacity:0.30000299"><g
                 transform="translate(790.2236,358.208)"
                 id="g442"><path
                   d="m 0,0 c 0.06,2.283 -3.891,4.687 -9.171,4.823 -5.279,0.136 -9.606,-1.604 -9.666,-3.887 -0.058,-2.283 4.175,-4.244 9.455,-4.379 C -4.104,-3.579 -0.058,-2.283 0,0"
                   style="fill:#ffffff;fill-opacity:1;fill-rule:nonzero;stroke:none"
                   id="path444"
                   inkscape:connector-curvature="0" /></g></g></g></g><g
           id="g446"><g
             id="g448" /><g
             id="g454"><g
               clip-path="url(#clipPath450)"
               id="g456"
               style="opacity:0.30000299"><g
                 transform="translate(796.2139,342.1245)"
                 id="g458"><path
                   d="M 0,0 C 0.077,2.993 -4.373,6.125 -10.336,6.278 -16.299,6.431 -21.196,4.13 -21.273,1.14 -21.351,-1.853 -16.577,-4.402 -10.615,-4.555 -4.652,-4.708 -0.076,-2.991 0,0"
                   style="fill:#ffffff;fill-opacity:1;fill-rule:nonzero;stroke:none"
                   id="path460"
                   inkscape:connector-curvature="0" /></g></g></g></g><g
           id="g462"><g
             id="g464" /><g
             id="g470"><g
               clip-path="url(#clipPath466)"
               id="g472"
               style="opacity:0.30000299"><g
                 transform="translate(782.0596,380.1396)"
                 id="g474"><path
                   d="m 0,0 c 0.012,1.394 -2.989,2.824 -6.956,2.857 -3.967,0.035 -7.192,-1.068 -7.204,-2.461 -0.013,-1.393 3.194,-2.55 7.162,-2.584 C -3.032,-2.221 -0.012,-1.393 0,0"
                   style="fill:#ffffff;fill-opacity:1;fill-rule:nonzero;stroke:none"
                   id="path476"
                   inkscape:connector-curvature="0" /></g></g></g></g><g
           id="g478"><g
             id="g480" /><g
             id="g486"><g
               clip-path="url(#clipPath482)"
               id="g488"
               style="opacity:0.30000299"><g
                 transform="translate(771.3154,375.833)"
                 id="g490"><path
                   d="m 0,0 c -0.054,1.561 -3.397,2.934 -7.664,2.816 -4.269,-0.119 -7.686,-1.48 -7.633,-3.04 0.053,-1.561 3.557,-2.73 7.825,-2.611 C -3.206,-2.718 0.054,-1.561 0,0"
                   style="fill:#ffffff;fill-opacity:1;fill-rule:nonzero;stroke:none"
                   id="path492"
                   inkscape:connector-curvature="0" /></g></g></g></g><g
           id="g494"
           transform="translate(759.2051,370.9146)"><path
             d="m 0,0 c -0.106,1.706 -3.918,3.079 -8.665,2.891 -4.743,-0.19 -8.503,-1.726 -8.397,-3.433 0.107,-1.707 4.039,-2.937 8.782,-2.749 C -3.534,-3.103 0.106,-1.707 0,0"
             style="fill:#ffffff;fill-opacity:1;fill-rule:nonzero;stroke:none"
             id="path496"
             inkscape:connector-curvature="0" /></g><g
           id="g498"><g
             id="g500" /><g
             id="g506"><g
               clip-path="url(#clipPath502)"
               id="g508"
               style="opacity:0.30000299"><g
                 transform="translate(745.1855,365.5112)"
                 id="g510"><path
                   d="m 0,0 c -0.166,2.058 -4.303,3.504 -9.334,3.106 -5.031,-0.398 -8.977,-2.387 -8.811,-4.444 0.166,-2.058 4.38,-3.403 9.412,-3.006 C -3.7,-3.947 0.166,-2.057 0,0"
                   style="fill:#ffffff;fill-opacity:1;fill-rule:nonzero;stroke:none"
                   id="path512"
                   inkscape:connector-curvature="0" /></g></g></g></g><g
           id="g514"><g
             id="g516" /><g
             id="g522"><g
               clip-path="url(#clipPath518)"
               id="g524"
               style="opacity:0.30000299"><g
                 transform="translate(729.042,358.9575)"
                 id="g526"><path
                   d="m 0,0 c -0.222,2.318 -4.95,3.845 -10.61,3.351 -5.66,-0.495 -10.068,-2.774 -9.846,-5.091 0.222,-2.319 4.988,-3.797 10.65,-3.302 C -4.146,-4.549 0.222,-2.318 0,0"
                   style="fill:#ffffff;fill-opacity:1;fill-rule:nonzero;stroke:none"
                   id="path528"
                   inkscape:connector-curvature="0" /></g></g></g></g><g
           id="g530"
           transform="translate(710.1631,352.0098)"><path
             d="M 0,0 C -0.35,2.713 -5.768,4.249 -12.1,3.432 -18.432,2.614 -23.28,-0.25 -22.931,-2.963 -22.58,-5.676 -17.162,-7.212 -10.83,-6.394 -4.498,-5.576 0.351,-2.714 0,0"
             style="fill:#ffffff;fill-opacity:1;fill-rule:nonzero;stroke:none"
             id="path532"
             inkscape:connector-curvature="0" /></g></g></g></g></svg>